{
  "type": "service_account",
  "project_id": "projecta17-7f7a7",
  "private_key_id": "b84ea1035a1e204e83e2f5f9f4a9dcbb598e26a3",
  "private_key": "-----BEGIN PRIVATE KEY-----\nMIIEvwIBADANBgkqhkiG9w0BAQEFAASCBKkwggSlAgEAAoIBAQDGoM0DkYBOdgai\nL6uGeQLfcBk3Xw2A9RWS/jsN5QwwO+vGHNZLcE7H9wuWvlUMqEQKbs15cT5RoXYz\nyCjw1kqpXoz6laibYZSn+CtKtg/s6NMdJBfR0al+SXIZzQxa4Sla5fl77GW+5YLp\naSzMn+SFwJoUNUTt1dOB+gefPoDH4Ktx5hf3gv0VM4v0u6jjQVHPqzVpEKheW50W\nNeBfpodYyx9FrsJ7qIqZcDMCKENrS0BLobpujCnWpWd9ClW6MKN6AbS0bazBJ+G7\n4FrXypd9puboBwX8wDYFZ5Ofo7XA87V6frD3BYX64dPsP/pb/3rRemoK5VM8MUqR\nbFQlOoDZAgMBAAECggEBAJpnK5dnhub3JqbzCZIqBYqteFyrvjKN0iyHBl8Bu1zP\nZ7OEfSz9a7BUIaUX5cNGFkZJ5d5OopQQQHN2WCUHX9iTUGIG7p+C1m1QJE8agfy2\n7E2N3hpTsj8iVtkppT4MI/quJScpF9qyTPamtJWIgbtbgirNUfzUKGu0cjJfAvrc\nEn8EDiZHxM3ncLHON+O+JW5EP2QNKpGwO6md1TBtbPmIb/0acPmlRmiml5i03fEw\nd8UmrjjtTgIewi1cMP4d5MY8UtcZMHF4KW8Inf/Dc/mDOHDYF2AHaVv55RFr6pg/\nLWtce59D2XhB7Dl9TSzLD5p4bxihXVxE/j/6AExAVqUCgYEA9QWpxnr60aFUXVQd\nOpZAAwIDQUSI4S0xE4BgWEPTx3V/5iUKarCUP15eP+BTOv9Cao5QfMxeicE57Mwc\ne+ui2LHSMr+lkbQeoYm8UCFdH2S9gxqCyS6J/M1P5iv9fEjQ1M6FHS3cwgAIA7Ej\ndjWfstJOViJrz9mJnch/kztMGvsCgYEAz4cC3xHmuGBJvWb7dKhcI6vk/9rCm6VZ\nzl0UNv+YNgQzXytVQ4G+JkmAglbCKSEvRs32hu+ALUJ5tCBoUGA3A/YLIY8YVmnM\n1JBW9dTqzf7LrqAISLlqD0sZ0/ofx6GqCZZ+UD7jYuaeO/hugZjB9U4FCl7KqEvI\nyEB2w7n+izsCgYEA05J2TSq4Ffemr4gITSScVXyRbvRM9ZNeQyahCtZWsm6laAcn\n/YRIHofP/nwnolPz96q3mWunXm/5Ip4FIoQP8+loReXyg+PyZy5V6yNEE+2bLu/f\navTCtgZbLbdihMUjff5uNwn5C5OXWAjHRDV9lp2+guXqDmobSKFud6XGS60CgYEA\nvfC1WRPaVuCSPU9XUOOTSXbX5rEDs094zd71VI1FdBMOLcnMhTfnoMVfYGwl010z\nFxwFymTErSgNmiabMw2M7QwyDeoZfWXiep8NaH0S162gINkKG/3QK+Ux44knsyCt\nL49VVv7oQaoQI5VzFxyIUYuyI1a1J6oNP/N4gBXo+ucCgYBcFp6f4rNRJp0TGEcs\nPPD6u65SGATkfrz5NOTQ7HHlXQ7aofp4K1iKDGAGladNF5ufow/zWSnwByz126aB\nHxrLDUTVcLspyI3wurnO0EfxEt6jt/dj27ZBN6Y0bPPHGuceAmMe8hLzPWNF0n22\nyT6Zv2t4Av/0vD1bxDK5CNUv/g==\n-----END PRIVATE KEY-----\n",
  "client_email": "744920772125-compute@developer.gserviceaccount.com",
  "client_id": "115846103450188934692",
  "auth_uri": "https://accounts.google.com/o/oauth2/auth",
  "token_uri": "https://accounts.google.com/o/oauth2/token",
  "auth_provider_x509_cert_url": "https://www.googleapis.com/oauth2/v1/certs",
  "client_x509_cert_url": "https://www.googleapis.com/robot/v1/metadata/x509/744920772125-compute%40developer.gserviceaccount.com"
}
